…
mu_0 = map2(x_sample, 0, \(x, y) t_test(sample = x, mu = y))
#code: "mu_0 = t_test(x_sample, 0)" cannot work. (?)
mu_0_outcome =
  tibble(mu_0) |>
  unnest(mu_0) |>
  rename(p_value = p.value) |>
  mutate(mu = 0) |>
  mutate(iter = 1:5000) |>
  select(mu, iter, everything())

mu_0_outcome
```

    ## # A tibble: 5,000 × 4
    ##       mu  iter estimate p_value
    ##    <dbl> <int>    <dbl>   <dbl>
    ##  1     0     1  0.00646   0.974
    ##  2     0     2  0.222     0.332
    ##  3     0     3 -0.255     0.104
    ##  4     0     4 -0.0854    0.643
    ##  5     0     5 -0.0139    0.938
    ##  6     0     6 -0.117     0.476
    ##  7     0     7 -0.138     0.259
    ##  8     0     8  0.136     0.373
    ##  9     0     9 -0.222     0.214
    ## 10     0    10 -0.178     0.295
    ## # ℹ 4,990 more rows
…
mu_0to6 = bind_rows(mu_0_outcome, mu_1to6)

mu_0to6
```

    ## # A tibble: 35,000 × 4
    ##       mu  iter estimate p_value
    ##    <dbl> <int>    <dbl>   <dbl>
    ##  1     0     1  0.00646   0.974
    ##  2     0     2  0.222     0.332
    ##  3     0     3 -0.255     0.104
    ##  4     0     4 -0.0854    0.643
    ##  5     0     5 -0.0139    0.938
    ##  6     0     6 -0.117     0.476
    ##  7     0     7 -0.138     0.259
    ##  8     0     8  0.136     0.373
    ##  9     0     9 -0.222     0.214
    ## 10     0    10 -0.178     0.295
    ## # ℹ 34,990 more rows
…
